﻿"Time","max","p95","p90","min","mean"
2021-08-25 16:12:50,1.21 s,825 ms,762 ms,51.1 ms,456 ms
2021-08-25 16:12:52,1.62 s,1.24 s,1.02 s,100 ms,729 ms
2021-08-25 16:12:54,1.31 s,962 ms,900 ms,145 ms,584 ms
2021-08-25 16:12:56,1.48 s,1.05 s,1.00 s,108 ms,596 ms
2021-08-25 16:12:58,1.42 s,931 ms,857 ms,59.9 ms,500 ms
2021-08-25 16:13:00,1.20 s,957 ms,848 ms,203 ms,565 ms
2021-08-25 16:13:02,860 ms,811 ms,784 ms,101 ms,497 ms
2021-08-25 16:13:04,1.28 s,929 ms,783 ms,144 ms,521 ms
2021-08-25 16:13:06,1.14 s,961 ms,823 ms,64.0 ms,513 ms
2021-08-25 16:13:08,1.33 s,786 ms,757 ms,63.5 ms,480 ms
2021-08-25 16:13:10,1.29 s,1.02 s,801 ms,120 ms,539 ms
2021-08-25 16:13:12,1.17 s,927 ms,769 ms,49.6 ms,491 ms
2021-08-25 16:13:14,1.08 s,796 ms,700 ms,17.1 ms,446 ms
2021-08-25 16:13:16,1.25 s,962 ms,893 ms,62.8 ms,512 ms
2021-08-25 16:13:18,1.14 s,890 ms,857 ms,29.3 ms,494 ms
2021-08-25 16:13:20,1.11 s,877 ms,702 ms,124 ms,455 ms
2021-08-25 16:13:22,979 ms,813 ms,634 ms,17.7 ms,410 ms
2021-08-25 16:13:24,956 ms,661 ms,582 ms,78.0 ms,371 ms
2021-08-25 16:13:26,1.01 s,768 ms,663 ms,71.5 ms,401 ms
2021-08-25 16:13:28,954 ms,680 ms,601 ms,49.5 ms,382 ms
2021-08-25 16:13:30,888 ms,644 ms,566 ms,65.6 ms,348 ms
2021-08-25 16:13:32,1.01 s,725 ms,634 ms,65.9 ms,393 ms
2021-08-25 16:13:34,960 ms,763 ms,678 ms,72.1 ms,396 ms
2021-08-25 16:13:36,940 ms,740 ms,712 ms,116 ms,445 ms
2021-08-25 16:13:38,875 ms,732 ms,649 ms,24.0 ms,387 ms
2021-08-25 16:13:40,1.03 s,776 ms,601 ms,28.6 ms,376 ms
2021-08-25 16:13:42,745 ms,614 ms,538 ms,49.0 ms,348 ms
2021-08-25 16:13:44,1.04 s,828 ms,680 ms,63.1 ms,448 ms
2021-08-25 16:13:46,745 ms,567 ms,514 ms,56.3 ms,303 ms
2021-08-25 16:13:48,775 ms,654 ms,579 ms,47.8 ms,359 ms
2021-08-25 16:13:50,761 ms,652 ms,588 ms,36.8 ms,369 ms
2021-08-25 16:13:52,906 ms,627 ms,593 ms,64.0 ms,346 ms
2021-08-25 16:13:54,962 ms,643 ms,546 ms,21.8 ms,317 ms
2021-08-25 16:13:56,962 ms,551 ms,488 ms,28.9 ms,327 ms
2021-08-25 16:13:58,842 ms,577 ms,498 ms,49.1 ms,300 ms
2021-08-25 16:14:00,823 ms,623 ms,562 ms,51.9 ms,348 ms
2021-08-25 16:14:02,902 ms,635 ms,552 ms,15.5 ms,358 ms
2021-08-25 16:14:04,896 ms,657 ms,543 ms,17.8 ms,330 ms
2021-08-25 16:14:06,1.23 s,818 ms,648 ms,21.9 ms,357 ms
2021-08-25 16:14:08,813 ms,645 ms,535 ms,9.24 ms,338 ms
2021-08-25 16:14:10,868 ms,576 ms,535 ms,42.7 ms,322 ms
2021-08-25 16:14:12,811 ms,586 ms,562 ms,20.6 ms,338 ms
2021-08-25 16:14:14,1.02 s,625 ms,565 ms,32.1 ms,338 ms
2021-08-25 16:14:16,809 ms,674 ms,563 ms,37.1 ms,339 ms
2021-08-25 16:14:18,725 ms,600 ms,505 ms,28.9 ms,317 ms
2021-08-25 16:14:20,859 ms,553 ms,497 ms,31.6 ms,327 ms
2021-08-25 16:14:22,702 ms,589 ms,538 ms,76.5 ms,320 ms
2021-08-25 16:14:24,779 ms,591 ms,508 ms,47.9 ms,311 ms
2021-08-25 16:14:26,802 ms,626 ms,565 ms,28.3 ms,343 ms
2021-08-25 16:14:28,869 ms,746 ms,575 ms,33.3 ms,343 ms
2021-08-25 16:14:30,823 ms,648 ms,573 ms,59.8 ms,342 ms
2021-08-25 16:14:32,977 ms,608 ms,568 ms,29.6 ms,341 ms
2021-08-25 16:14:34,778 ms,592 ms,523 ms,44.1 ms,319 ms
2021-08-25 16:14:36,861 ms,552 ms,514 ms,51.9 ms,336 ms
2021-08-25 16:14:38,720 ms,532 ms,503 ms,33.8 ms,311 ms
2021-08-25 16:14:40,786 ms,583 ms,544 ms,33.5 ms,325 ms
2021-08-25 16:14:42,749 ms,692 ms,591 ms,69.3 ms,361 ms
2021-08-25 16:14:44,803 ms,664 ms,577 ms,49.6 ms,346 ms
2021-08-25 16:14:46,863 ms,620 ms,550 ms,47.1 ms,353 ms
2021-08-25 16:14:48,735 ms,573 ms,525 ms,50.7 ms,317 ms
2021-08-25 16:14:50,719 ms,597 ms,516 ms,37.4 ms,337 ms
2021-08-25 16:14:52,910 ms,595 ms,511 ms,49.4 ms,321 ms
2021-08-25 16:14:54,1.11 s,673 ms,616 ms,20.8 ms,367 ms
2021-08-25 16:14:56,944 ms,660 ms,569 ms,37.6 ms,356 ms
2021-08-25 16:14:58,1.06 s,700 ms,614 ms,63.1 ms,350 ms
2021-08-25 16:15:00,890 ms,696 ms,612 ms,18.3 ms,351 ms
2021-08-25 16:15:02,1.07 s,696 ms,575 ms,98.0 ms,357 ms
2021-08-25 16:15:04,888 ms,681 ms,589 ms,43.4 ms,348 ms
2021-08-25 16:15:06,1.20 s,752 ms,670 ms,36.7 ms,400 ms
2021-08-25 16:15:08,891 ms,651 ms,615 ms,65.5 ms,363 ms
2021-08-25 16:15:10,1.07 s,727 ms,627 ms,8.07 ms,371 ms
2021-08-25 16:15:12,832 ms,652 ms,584 ms,21.3 ms,362 ms
2021-08-25 16:15:14,825 ms,705 ms,616 ms,5.09 ms,340 ms
2021-08-25 16:15:16,861 ms,630 ms,561 ms,36.5 ms,356 ms
2021-08-25 16:15:18,1.04 s,682 ms,634 ms,45.1 ms,377 ms
2021-08-25 16:15:20,869 ms,682 ms,628 ms,67.3 ms,383 ms
2021-08-25 16:15:22,859 ms,671 ms,553 ms,41.0 ms,362 ms
2021-08-25 16:15:24,896 ms,644 ms,588 ms,71.0 ms,364 ms
2021-08-25 16:15:26,1.02 s,739 ms,652 ms,16.0 ms,403 ms
2021-08-25 16:15:28,886 ms,628 ms,559 ms,38.8 ms,347 ms
2021-08-25 16:15:30,840 ms,615 ms,598 ms,20.8 ms,356 ms
2021-08-25 16:15:32,909 ms,625 ms,560 ms,35.9 ms,342 ms
2021-08-25 16:15:34,967 ms,688 ms,596 ms,85.5 ms,384 ms
2021-08-25 16:15:36,1.01 s,733 ms,641 ms,44.1 ms,377 ms
2021-08-25 16:15:38,846 ms,653 ms,599 ms,48.0 ms,367 ms
2021-08-25 16:15:40,952 ms,679 ms,572 ms,49.1 ms,354 ms
2021-08-25 16:15:42,911 ms,699 ms,596 ms,7.85 ms,356 ms
2021-08-25 16:15:44,896 ms,632 ms,554 ms,35.2 ms,329 ms
2021-08-25 16:15:46,864 ms,621 ms,529 ms,38.3 ms,344 ms
2021-08-25 16:15:48,803 ms,629 ms,614 ms,41.1 ms,339 ms
2021-08-25 16:15:50,962 ms,747 ms,685 ms,28.9 ms,422 ms
2021-08-25 16:15:52,882 ms,630 ms,563 ms,46.6 ms,349 ms
2021-08-25 16:15:54,884 ms,584 ms,560 ms,25.1 ms,333 ms
2021-08-25 16:15:56,994 ms,659 ms,638 ms,80.5 ms,391 ms
2021-08-25 16:15:58,924 ms,776 ms,636 ms,34.8 ms,392 ms
2021-08-25 16:16:00,1.01 s,894 ms,667 ms,20.7 ms,402 ms
2021-08-25 16:16:02,1.04 s,737 ms,703 ms,41.1 ms,406 ms
2021-08-25 16:16:04,964 ms,703 ms,666 ms,53.0 ms,387 ms
2021-08-25 16:16:06,922 ms,690 ms,665 ms,62.2 ms,409 ms
2021-08-25 16:16:08,998 ms,702 ms,621 ms,54.6 ms,406 ms
2021-08-25 16:16:10,1.02 s,832 ms,707 ms,13.6 ms,448 ms
2021-08-25 16:16:12,915 ms,714 ms,659 ms,15.6 ms,401 ms
2021-08-25 16:16:14,1.03 s,756 ms,685 ms,75.9 ms,424 ms
2021-08-25 16:16:16,1.01 s,823 ms,806 ms,46.3 ms,462 ms
2021-08-25 16:16:18,1.09 s,804 ms,710 ms,56.2 ms,420 ms
2021-08-25 16:16:20,1.03 s,844 ms,669 ms,72.1 ms,439 ms
2021-08-25 16:16:22,900 ms,683 ms,620 ms,29.3 ms,381 ms
2021-08-25 16:16:24,802 ms,700 ms,591 ms,40.4 ms,376 ms
2021-08-25 16:16:26,1.01 s,637 ms,577 ms,82.8 ms,386 ms
2021-08-25 16:16:28,824 ms,640 ms,548 ms,62.7 ms,352 ms
2021-08-25 16:16:30,1.15 s,847 ms,788 ms,106 ms,456 ms
2021-08-25 16:16:32,933 ms,686 ms,590 ms,89.0 ms,383 ms
2021-08-25 16:16:34,1.07 s,701 ms,638 ms,40.4 ms,419 ms
2021-08-25 16:16:36,894 ms,694 ms,605 ms,52.8 ms,369 ms
2021-08-25 16:16:38,998 ms,651 ms,600 ms,59.5 ms,389 ms
2021-08-25 16:16:40,1.05 s,724 ms,656 ms,87.4 ms,419 ms
2021-08-25 16:16:42,1.12 s,715 ms,680 ms,55.7 ms,395 ms
2021-08-25 16:16:44,916 ms,744 ms,654 ms,48.7 ms,387 ms
2021-08-25 16:16:46,911 ms,711 ms,650 ms,8.09 ms,388 ms
2021-08-25 16:16:48,1.03 s,809 ms,692 ms,63.4 ms,428 ms
2021-08-25 16:16:50,1.07 s,897 ms,720 ms,54.3 ms,440 ms
2021-08-25 16:16:52,948 ms,761 ms,616 ms,41.8 ms,383 ms
2021-08-25 16:16:54,884 ms,679 ms,601 ms,28.6 ms,352 ms
2021-08-25 16:16:56,1.04 s,722 ms,675 ms,62.0 ms,408 ms
2021-08-25 16:16:58,858 ms,701 ms,642 ms,56.6 ms,370 ms
2021-08-25 16:17:00,937 ms,727 ms,655 ms,64.3 ms,414 ms
2021-08-25 16:17:02,986 ms,674 ms,610 ms,68.2 ms,400 ms
2021-08-25 16:17:04,976 ms,803 ms,742 ms,46.1 ms,413 ms
2021-08-25 16:17:06,1.11 s,794 ms,752 ms,68.3 ms,474 ms
2021-08-25 16:17:08,931 ms,801 ms,664 ms,50.3 ms,378 ms
2021-08-25 16:17:10,971 ms,788 ms,699 ms,21.8 ms,452 ms
2021-08-25 16:17:12,1.23 s,790 ms,767 ms,46.1 ms,464 ms
2021-08-25 16:17:14,1.15 s,844 ms,724 ms,43.2 ms,416 ms
2021-08-25 16:17:16,1.01 s,733 ms,665 ms,89.7 ms,392 ms
2021-08-25 16:17:18,1.05 s,777 ms,663 ms,64.8 ms,406 ms
2021-08-25 16:17:20,1.17 s,747 ms,686 ms,41.0 ms,407 ms
2021-08-25 16:17:22,951 ms,737 ms,664 ms,103 ms,419 ms
2021-08-25 16:17:24,1.02 s,713 ms,665 ms,35.7 ms,407 ms
2021-08-25 16:17:26,896 ms,783 ms,733 ms,43.9 ms,456 ms
2021-08-25 16:17:28,933 ms,787 ms,684 ms,50.1 ms,427 ms
2021-08-25 16:17:30,1.27 s,1.07 s,863 ms,153 ms,544 ms
2021-08-25 16:17:32,888 ms,748 ms,667 ms,114 ms,408 ms
2021-08-25 16:17:34,970 ms,788 ms,653 ms,47.8 ms,429 ms
2021-08-25 16:17:36,945 ms,691 ms,647 ms,45.1 ms,361 ms
2021-08-25 16:17:38,1.14 s,850 ms,682 ms,80.6 ms,419 ms
2021-08-25 16:17:40,1.15 s,801 ms,765 ms,16.0 ms,482 ms
2021-08-25 16:17:42,965 ms,766 ms,669 ms,48.9 ms,410 ms
2021-08-25 16:17:44,1.13 s,688 ms,606 ms,24.3 ms,383 ms
2021-08-25 16:17:46,986 ms,771 ms,717 ms,60.3 ms,418 ms
2021-08-25 16:17:48,1.11 s,788 ms,724 ms,6.45 ms,443 ms
2021-08-25 16:17:50,1.04 s,676 ms,616 ms,13.7 ms,287 ms

