@startuml
'https://plantuml.com/class-diagram
left to right direction

skinparam shadowing false

class Playlist << DTO >> {
  <<get>> id: UUID
  <<get>> name: String
  <<get>> publicPlaylist: Boolean
  <<get>> collaborative: Boolean
}

class User << DTO >> {
  <<get>> username: String
  <<get>> displayName: String
}

@enduml