@startuml
left to right direction

skinparam shadowing false

actor Benutzer as User

package Musikverwaltung {
  (Musik verwalten) as (music-management)
  (Playlist erstellen) as (create-playlist)
  (Playlist bearbeiten) as (edit-playlist)
  (Playlist löschen) as (delete-playlist)
  (Playlist abrufen) as (get-playlist)
  (Songs zu Playlist hinzufügen) as (add-songs)
  (Songs aus Playlist entfernen) as (remove-songs)
  (Songs aus Playlist abrufen) as (get-songs)

  (music-management) <.. (create-playlist) : <<extend>>
  (music-management) <.. (edit-playlist) : <<extend>>
  (music-management) <.. (delete-playlist) : <<extend>>
  (music-management) <.. (get-playlist) : <<extend>>
  (music-management) <.. (add-songs) : <<extend>>
  (music-management) <.. (remove-songs) : <<extend>>
  (music-management) <.. (get-songs) : <<extend>>

  note bottom of (edit-playlist)
    Metainformationen wie Name der Playlist, nicht die Songs
  end note

  (Suche nach Musik) as (search)
  (Suche nach Album) as (search-album)
  (Suche nach Künstler) as (search-artist)
  (Suche nach Song) as (search-songs)

  (search) <.. (search-album) : <<extend>>
  (search) <.. (search-artist) : <<extend>>
  (search) <.. (search-songs) : <<extend>>
}

User --> (search)
User -> (music-management)
@enduml