﻿"Time","max","p95","p90","min","mean"
2021-08-25 17:57:00,1.73 s,1.40 s,1.27 s,80.5 ms,718 ms
2021-08-25 17:57:02,3.61 s,2.70 s,2.48 s,916 ms,1.70 s
2021-08-25 17:57:04,4.96 s,3.71 s,3.22 s,1.07 s,2.06 s
2021-08-25 17:57:06,6.54 s,5.17 s,4.33 s,1.11 s,2.42 s
2021-08-25 17:57:08,8.38 s,5.24 s,4.48 s,1.62 s,3.00 s
2021-08-25 17:57:10,9.72 s,5.53 s,5.07 s,1.56 s,3.22 s
2021-08-25 17:57:12,9.52 s,6.15 s,5.27 s,1.72 s,3.30 s
2021-08-25 17:57:14,11.0 s,6.72 s,5.54 s,1.31 s,3.11 s
2021-08-25 17:57:16,10.7 s,6.31 s,5.42 s,1.47 s,3.02 s
2021-08-25 17:57:18,12.6 s,6.58 s,5.18 s,1.29 s,3.05 s
2021-08-25 17:57:20,9.09 s,5.85 s,5.03 s,1.23 s,2.76 s
2021-08-25 17:57:22,9.76 s,5.29 s,4.33 s,1.09 s,2.49 s
2021-08-25 17:57:24,8.89 s,3.86 s,3.24 s,933 ms,2.09 s
2021-08-25 17:57:26,8.42 s,4.06 s,3.19 s,814 ms,1.92 s
2021-08-25 17:57:28,6.67 s,3.49 s,3.06 s,789 ms,1.91 s
2021-08-25 17:57:30,4.55 s,3.42 s,2.97 s,989 ms,2.00 s
2021-08-25 17:57:32,5.91 s,4.16 s,3.50 s,1.06 s,2.38 s
2021-08-25 17:57:34,7.02 s,4.10 s,3.85 s,1.42 s,2.78 s
2021-08-25 17:57:36,8.65 s,4.71 s,4.48 s,1.51 s,3.10 s
2021-08-25 17:57:38,8.78 s,4.90 s,4.57 s,1.29 s,3.05 s
2021-08-25 17:57:40,7.19 s,4.31 s,4.09 s,1.09 s,2.66 s
2021-08-25 17:57:42,8.03 s,3.80 s,3.47 s,1.11 s,2.29 s
2021-08-25 17:57:44,7.04 s,3.84 s,3.29 s,943 ms,2.13 s
2021-08-25 17:57:46,10.6 s,3.26 s,3.01 s,778 ms,1.89 s
2021-08-25 17:57:48,6.34 s,3.16 s,2.54 s,612 ms,1.50 s
2021-08-25 17:57:50,5.53 s,3.06 s,2.38 s,691 ms,1.56 s
2021-08-25 17:57:52,5.52 s,3.24 s,2.54 s,754 ms,1.66 s
2021-08-25 17:57:54,4.97 s,3.29 s,2.69 s,746 ms,1.69 s
2021-08-25 17:57:56,5.26 s,3.60 s,2.87 s,901 ms,1.92 s
2021-08-25 17:57:58,6.31 s,3.72 s,2.88 s,854 ms,1.88 s
2021-08-25 17:58:00,6.85 s,3.73 s,3.36 s,859 ms,1.88 s
2021-08-25 17:58:02,6.75 s,3.45 s,3.18 s,866 ms,1.89 s
2021-08-25 17:58:04,6.80 s,3.89 s,3.19 s,899 ms,1.98 s
2021-08-25 17:58:06,7.97 s,3.95 s,2.92 s,855 ms,1.86 s
2021-08-25 17:58:08,5.98 s,4.04 s,3.27 s,1.01 s,2.02 s
2021-08-25 17:58:10,5.77 s,4.08 s,3.62 s,1.01 s,2.16 s
2021-08-25 17:58:12,8.93 s,4.45 s,3.89 s,1.26 s,2.45 s
2021-08-25 17:58:14,8.46 s,5.08 s,4.04 s,1.06 s,2.54 s
2021-08-25 17:58:16,9.07 s,5.48 s,4.32 s,1.34 s,2.84 s
2021-08-25 17:58:18,9.04 s,5.18 s,4.55 s,1.26 s,2.78 s
2021-08-25 17:58:20,10.7 s,5.35 s,4.52 s,1.36 s,2.78 s
2021-08-25 17:58:22,10.9 s,6.17 s,4.64 s,1.18 s,2.96 s
2021-08-25 17:58:24,7.16 s,5.04 s,4.30 s,1.13 s,2.48 s
2021-08-25 17:58:26,11.7 s,5.00 s,3.94 s,939 ms,2.31 s
2021-08-25 17:58:28,8.45 s,4.54 s,3.65 s,1.01 s,2.25 s
2021-08-25 17:58:30,6.77 s,4.34 s,3.49 s,1.07 s,2.23 s
2021-08-25 17:58:32,6.31 s,4.38 s,3.70 s,1.11 s,2.29 s
2021-08-25 17:58:34,6.34 s,4.05 s,3.48 s,1.13 s,2.45 s
2021-08-25 17:58:36,8.90 s,4.29 s,3.46 s,1.18 s,2.46 s
2021-08-25 17:58:38,7.04 s,4.31 s,4.19 s,1.05 s,2.36 s
2021-08-25 17:58:40,6.55 s,3.80 s,3.52 s,1.09 s,2.44 s
2021-08-25 17:58:42,8.50 s,3.71 s,3.42 s,1.02 s,2.24 s
2021-08-25 17:58:44,8.60 s,4.24 s,3.33 s,1.08 s,2.36 s
2021-08-25 17:58:46,9.68 s,4.32 s,3.48 s,930 ms,2.28 s
2021-08-25 17:58:48,7.38 s,3.56 s,3.22 s,979 ms,2.10 s
2021-08-25 17:58:50,6.55 s,4.08 s,3.12 s,1.02 s,2.14 s
2021-08-25 17:58:52,9.45 s,4.02 s,3.13 s,937 ms,2.03 s
2021-08-25 17:58:54,6.28 s,3.54 s,2.83 s,771 ms,1.79 s
2021-08-25 17:58:56,6.34 s,3.63 s,2.82 s,871 ms,1.80 s
2021-08-25 17:58:58,7.52 s,3.75 s,3.09 s,886 ms,1.91 s
2021-08-25 17:59:00,5.74 s,3.96 s,3.21 s,1.01 s,2.06 s
2021-08-25 17:59:02,6.59 s,3.83 s,3.01 s,891 ms,1.97 s
2021-08-25 17:59:04,6.48 s,3.94 s,3.06 s,866 ms,2.08 s
2021-08-25 17:59:06,6.99 s,3.79 s,3.48 s,836 ms,2.00 s
2021-08-25 17:59:08,6.02 s,3.87 s,3.51 s,996 ms,2.11 s
2021-08-25 17:59:10,7.66 s,4.28 s,3.54 s,1.03 s,2.26 s
2021-08-25 17:59:12,10.8 s,4.32 s,3.56 s,992 ms,2.20 s
2021-08-25 17:59:14,9.25 s,4.38 s,3.72 s,893 ms,2.13 s
2021-08-25 17:59:16,8.91 s,3.83 s,3.31 s,1.13 s,2.24 s
2021-08-25 17:59:18,7.92 s,5.02 s,3.94 s,1.13 s,2.36 s
2021-08-25 17:59:20,8.60 s,4.90 s,4.10 s,1.25 s,2.47 s
2021-08-25 17:59:22,8.71 s,5.46 s,4.35 s,1.10 s,2.54 s
2021-08-25 17:59:24,8.94 s,4.98 s,4.10 s,1.20 s,2.54 s
2021-08-25 17:59:26,6.90 s,4.58 s,3.97 s,1.05 s,2.34 s
2021-08-25 17:59:28,8.85 s,4.74 s,3.98 s,1.13 s,2.43 s
2021-08-25 17:59:30,8.78 s,4.41 s,3.84 s,1.12 s,2.37 s
2021-08-25 17:59:32,8.75 s,4.83 s,4.11 s,1.15 s,2.45 s
2021-08-25 17:59:34,7.00 s,4.99 s,4.25 s,1.16 s,2.56 s
2021-08-25 17:59:36,6.74 s,4.42 s,3.80 s,1.04 s,2.37 s
2021-08-25 17:59:38,7.38 s,4.62 s,3.82 s,1.12 s,2.43 s
2021-08-25 17:59:40,6.91 s,4.59 s,3.78 s,1.06 s,2.31 s
2021-08-25 17:59:42,7.21 s,3.92 s,3.72 s,1.17 s,2.34 s
2021-08-25 17:59:44,7.96 s,4.69 s,4.00 s,1.15 s,2.36 s
2021-08-25 17:59:46,8.32 s,4.13 s,3.92 s,957 ms,2.22 s
2021-08-25 17:59:48,8.72 s,3.99 s,3.22 s,1.02 s,2.15 s
2021-08-25 17:59:50,7.56 s,3.88 s,3.12 s,1.01 s,2.21 s
2021-08-25 17:59:52,4.57 s,3.48 s,3.12 s,941 ms,2.13 s
2021-08-25 17:59:54,6.87 s,4.00 s,3.19 s,977 ms,2.18 s
2021-08-25 17:59:56,5.36 s,3.84 s,3.10 s,914 ms,1.94 s
2021-08-25 17:59:58,5.76 s,3.56 s,2.82 s,808 ms,1.87 s
2021-08-25 18:00:00,5.74 s,3.68 s,2.93 s,808 ms,1.96 s
2021-08-25 18:00:02,5.58 s,3.04 s,2.81 s,840 ms,1.89 s
2021-08-25 18:00:04,8.51 s,3.59 s,2.88 s,838 ms,1.84 s
2021-08-25 18:00:06,8.07 s,3.60 s,2.99 s,875 ms,1.92 s
2021-08-25 18:00:08,6.74 s,3.61 s,3.06 s,1.01 s,2.04 s
2021-08-25 18:00:10,8.97 s,3.98 s,3.34 s,965 ms,2.21 s
2021-08-25 18:00:12,6.24 s,4.54 s,3.68 s,983 ms,2.10 s
2021-08-25 18:00:14,6.84 s,3.67 s,3.27 s,902 ms,1.97 s
2021-08-25 18:00:16,10.1 s,4.81 s,3.61 s,1.03 s,2.19 s
2021-08-25 18:00:18,6.52 s,4.09 s,3.42 s,972 ms,2.08 s
2021-08-25 18:00:20,7.72 s,4.72 s,3.58 s,1.11 s,2.20 s
2021-08-25 18:00:22,10.4 s,4.55 s,3.89 s,993 ms,2.33 s
2021-08-25 18:00:24,10.4 s,4.71 s,4.01 s,1.07 s,2.37 s
2021-08-25 18:00:26,7.27 s,4.00 s,3.85 s,1.06 s,2.19 s
2021-08-25 18:00:28,9.36 s,4.66 s,3.94 s,1.19 s,2.45 s
2021-08-25 18:00:30,8.23 s,4.70 s,4.06 s,1.16 s,2.42 s
2021-08-25 18:00:32,6.86 s,4.25 s,3.69 s,1.16 s,2.31 s
2021-08-25 18:00:34,9.58 s,5.37 s,4.17 s,1.15 s,2.44 s
2021-08-25 18:00:36,7.70 s,4.70 s,4.08 s,1.11 s,2.42 s
2021-08-25 18:00:38,7.03 s,4.72 s,4.00 s,1.05 s,2.30 s
2021-08-25 18:00:40,10.4 s,4.76 s,4.01 s,1.11 s,2.40 s
2021-08-25 18:00:42,6.51 s,4.24 s,3.64 s,1.03 s,2.32 s
2021-08-25 18:00:44,7.96 s,4.28 s,3.49 s,888 ms,2.07 s
2021-08-25 18:00:46,7.38 s,4.40 s,3.58 s,1.07 s,2.25 s
2021-08-25 18:00:48,9.81 s,4.40 s,3.61 s,1.09 s,2.23 s
2021-08-25 18:00:50,6.56 s,4.68 s,3.88 s,1.08 s,2.37 s
2021-08-25 18:00:52,7.58 s,4.41 s,3.62 s,1.04 s,2.37 s
2021-08-25 18:00:54,9.54 s,5.09 s,4.13 s,1.07 s,2.37 s
2021-08-25 18:00:56,7.97 s,4.07 s,3.16 s,990 ms,2.22 s
2021-08-25 18:00:58,6.32 s,4.08 s,3.14 s,942 ms,2.16 s
2021-08-25 18:01:00,10.7 s,3.89 s,2.97 s,1.02 s,2.04 s
2021-08-25 18:01:02,5.77 s,3.62 s,2.84 s,847 ms,1.87 s
2021-08-25 18:01:04,8.02 s,3.43 s,2.67 s,845 ms,1.80 s
2021-08-25 18:01:06,8.14 s,3.69 s,3.05 s,960 ms,1.99 s
2021-08-25 18:01:08,5.89 s,3.89 s,3.15 s,1.00 s,2.17 s
2021-08-25 18:01:10,5.67 s,3.82 s,3.48 s,888 ms,1.94 s
2021-08-25 18:01:12,6.58 s,3.50 s,2.85 s,888 ms,1.92 s
2021-08-25 18:01:14,7.16 s,3.46 s,3.31 s,890 ms,1.87 s
2021-08-25 18:01:16,7.27 s,3.36 s,3.13 s,888 ms,1.87 s
2021-08-25 18:01:18,8.08 s,4.06 s,3.36 s,923 ms,2.09 s
2021-08-25 18:01:20,8.72 s,3.79 s,3.33 s,1.09 s,2.09 s
2021-08-25 18:01:22,7.05 s,4.24 s,3.43 s,869 ms,2.15 s
2021-08-25 18:01:24,6.45 s,3.98 s,3.28 s,1.11 s,2.13 s
2021-08-25 18:01:26,6.98 s,4.31 s,4.07 s,1.05 s,2.28 s
2021-08-25 18:01:28,6.63 s,4.14 s,3.87 s,1.04 s,2.17 s
2021-08-25 18:01:30,8.98 s,4.67 s,4.08 s,1.17 s,2.51 s
2021-08-25 18:01:32,9.39 s,5.24 s,4.41 s,1.19 s,2.60 s
2021-08-25 18:01:34,6.76 s,4.51 s,4.31 s,1.23 s,2.55 s
2021-08-25 18:01:36,8.93 s,5.10 s,4.53 s,1.28 s,2.69 s
2021-08-25 18:01:38,8.75 s,4.84 s,4.08 s,1.35 s,2.71 s
2021-08-25 18:01:40,10.9 s,4.96 s,4.13 s,1.31 s,2.73 s
2021-08-25 18:01:42,7.27 s,5.53 s,4.68 s,1.23 s,2.78 s
2021-08-25 18:01:44,9.91 s,5.05 s,4.14 s,1.23 s,2.60 s
2021-08-25 18:01:46,8.01 s,4.55 s,3.85 s,1.22 s,2.54 s
2021-08-25 18:01:48,7.22 s,4.58 s,3.81 s,1.20 s,2.50 s
2021-08-25 18:01:50,6.98 s,4.59 s,3.84 s,1.16 s,2.42 s
2021-08-25 18:01:52,9.49 s,4.87 s,4.60 s,1.16 s,2.57 s
2021-08-25 18:01:54,5.80 s,4.17 s,3.91 s,1.16 s,2.45 s
2021-08-25 18:01:56,10.5 s,4.97 s,4.12 s,1.18 s,2.54 s
2021-08-25 18:01:58,6.83 s,4.05 s,3.25 s,1.10 s,2.35 s
2021-08-25 18:02:00,8.64 s,4.30 s,4.12 s,1.22 s,2.54 s
2021-08-25 18:02:02,7.85 s,4.26 s,3.58 s,1.12 s,2.39 s
2021-08-25 18:02:04,9.97 s,4.20 s,3.37 s,1.03 s,2.35 s
2021-08-25 18:02:06,11.6 s,4.04 s,3.17 s,1.04 s,2.14 s
2021-08-25 18:02:08,6.27 s,4.33 s,3.64 s,1.04 s,2.49 s
2021-08-25 18:02:10,5.34 s,3.59 s,3.36 s,958 ms,2.12 s
2021-08-25 18:02:12,7.36 s,4.09 s,3.07 s,834 ms,2.02 s
2021-08-25 18:02:14,7.38 s,3.29 s,2.99 s,753 ms,1.92 s
2021-08-25 18:02:16,5.65 s,2.92 s,2.76 s,699 ms,1.70 s
2021-08-25 18:02:18,5.71 s,3.75 s,2.85 s,683 ms,1.84 s
2021-08-25 18:02:20,6.57 s,3.33 s,2.85 s,550 ms,1.70 s
2021-08-25 18:02:22,6.84 s,3.22 s,2.71 s,353 ms,1.53 s
2021-08-25 18:02:24,5.56 s,3.27 s,2.49 s,208 ms,1.36 s
2021-08-25 18:02:26,7.49 s,2.60 s,2.35 s,10.3 ms,1.21 s
2021-08-25 18:02:28,6.32 s,2.45 s,2.27 s,10.1 ms,1.09 s
2021-08-25 18:02:30,1.61 s,982 ms,939 ms,5.90 ms,743 ms

