﻿"Time","max","p95","p90","min","mean"
2021-08-25 17:51:56,987 ms,861 ms,729 ms,32.6 ms,471 ms
2021-08-25 17:51:58,2.99 s,2.42 s,2.31 s,511 ms,1.38 s
2021-08-25 17:52:00,4.91 s,3.36 s,2.88 s,31.5 ms,1.19 s
2021-08-25 17:52:02,5.98 s,1.19 s,915 ms,34.1 ms,580 ms
2021-08-25 17:52:04,3.59 s,1.43 s,1.21 s,12.0 ms,663 ms
2021-08-25 17:52:06,3.44 s,1.25 s,983 ms,39.7 ms,538 ms
2021-08-25 17:52:08,2.84 s,1.51 s,1.19 s,11.6 ms,609 ms
2021-08-25 17:52:10,3.82 s,1.45 s,1.20 s,8.05 ms,591 ms
2021-08-25 17:52:12,4.68 s,1.79 s,1.51 s,65.2 ms,751 ms
2021-08-25 17:52:14,4.17 s,1.34 s,1000 ms,17.7 ms,590 ms
2021-08-25 17:52:16,5.12 s,1.61 s,1.28 s,15.0 ms,593 ms
2021-08-25 17:52:18,3.91 s,1.27 s,1.08 s,3.53 ms,616 ms
2021-08-25 17:52:20,3.51 s,1.26 s,1.03 s,21.2 ms,595 ms
2021-08-25 17:52:22,3.99 s,1.18 s,973 ms,42.7 ms,558 ms
2021-08-25 17:52:24,3.16 s,1.99 s,1.65 s,6.66 ms,763 ms
2021-08-25 17:52:26,3.66 s,1.16 s,1.03 s,28.8 ms,570 ms
2021-08-25 17:52:28,3.79 s,1.25 s,1.07 s,19.8 ms,589 ms
2021-08-25 17:52:30,3.78 s,1.42 s,1.13 s,5.70 ms,586 ms
2021-08-25 17:52:32,4.49 s,1.35 s,1.06 s,9.14 ms,582 ms
2021-08-25 17:52:34,3.50 s,1.29 s,1.06 s,6.88 ms,537 ms
2021-08-25 17:52:36,3.71 s,1.41 s,1.19 s,10.3 ms,639 ms
2021-08-25 17:52:38,2.83 s,1.30 s,1.04 s,6.22 ms,557 ms
2021-08-25 17:52:40,3.78 s,1.52 s,1.30 s,13.9 ms,713 ms
2021-08-25 17:52:42,3.59 s,1.78 s,1.45 s,3.53 ms,734 ms
2021-08-25 17:52:44,4.13 s,1.04 s,903 ms,16.3 ms,497 ms
2021-08-25 17:52:46,4.28 s,1.72 s,1.32 s,17.5 ms,649 ms
2021-08-25 17:52:48,4.43 s,1.39 s,1.12 s,53.1 ms,607 ms
2021-08-25 17:52:50,3.46 s,1.06 s,860 ms,8.22 ms,523 ms
2021-08-25 17:52:52,2.90 s,1.16 s,1.04 s,5.72 ms,574 ms
2021-08-25 17:52:54,3.05 s,1.36 s,1.20 s,4.00 ms,628 ms
2021-08-25 17:52:56,3.63 s,1.44 s,1.19 s,30.4 ms,650 ms
2021-08-25 17:52:58,3.95 s,1.49 s,1.18 s,38.3 ms,603 ms
2021-08-25 17:53:00,2.95 s,1.79 s,1.49 s,66.0 ms,796 ms
2021-08-25 17:53:02,4.07 s,1.31 s,1.15 s,7.06 ms,623 ms
2021-08-25 17:53:04,4.06 s,1.67 s,1.12 s,1.53 ms,607 ms
2021-08-25 17:53:06,3.88 s,1.62 s,1.25 s,3.77 ms,625 ms
2021-08-25 17:53:08,4.10 s,931 ms,801 ms,65.3 ms,452 ms
2021-08-25 17:53:10,3.36 s,1.24 s,1.11 s,23.7 ms,637 ms
2021-08-25 17:53:12,2.64 s,1.12 s,1.00 s,4.69 ms,513 ms
2021-08-25 17:53:14,2.60 s,1.18 s,962 ms,21.0 ms,588 ms
2021-08-25 17:53:16,3.90 s,1.33 s,1.12 s,10.8 ms,614 ms
2021-08-25 17:53:18,4.69 s,944 ms,812 ms,50.1 ms,485 ms
2021-08-25 17:53:20,2.94 s,1.25 s,1.07 s,33.3 ms,624 ms
2021-08-25 17:53:22,4.04 s,1.50 s,1.27 s,4.49 ms,597 ms
2021-08-25 17:53:24,3.00 s,1.09 s,935 ms,23.9 ms,531 ms
2021-08-25 17:53:26,4.39 s,1.31 s,1.18 s,4.87 ms,638 ms
2021-08-25 17:53:28,3.51 s,1.47 s,1.18 s,4.22 ms,608 ms
2021-08-25 17:53:30,4.47 s,1.32 s,929 ms,30.2 ms,558 ms
2021-08-25 17:53:32,3.53 s,1.47 s,1.24 s,11.6 ms,657 ms
2021-08-25 17:53:34,3.29 s,1.54 s,1.29 s,12.0 ms,776 ms
2021-08-25 17:53:36,4.18 s,1.27 s,999 ms,5.13 ms,591 ms
2021-08-25 17:53:38,2.97 s,1.18 s,981 ms,4.09 ms,564 ms
2021-08-25 17:53:40,2.87 s,1.51 s,1.24 s,27.6 ms,605 ms
2021-08-25 17:53:42,3.39 s,1.63 s,1.34 s,9.84 ms,606 ms
2021-08-25 17:53:44,4.21 s,1.39 s,1.10 s,32.1 ms,623 ms
2021-08-25 17:53:46,3.43 s,1.73 s,1.35 s,5.10 ms,694 ms
2021-08-25 17:53:48,4.59 s,1.56 s,1.22 s,36.1 ms,615 ms
2021-08-25 17:53:50,5.19 s,1.09 s,899 ms,6.41 ms,495 ms
2021-08-25 17:53:52,3.00 s,1.26 s,1.03 s,7.88 ms,533 ms
2021-08-25 17:53:54,2.67 s,1.35 s,1.13 s,2.53 ms,615 ms
2021-08-25 17:53:56,3.46 s,1.35 s,1.05 s,37.2 ms,552 ms
2021-08-25 17:53:58,3.53 s,1.38 s,1.12 s,10.8 ms,602 ms
2021-08-25 17:54:00,3.18 s,1.19 s,923 ms,23.0 ms,536 ms
2021-08-25 17:54:02,2.82 s,1.23 s,1.03 s,10.0 ms,500 ms
2021-08-25 17:54:04,2.99 s,1.56 s,1.19 s,14.3 ms,566 ms
2021-08-25 17:54:06,4.56 s,1.11 s,925 ms,1.54 ms,511 ms
2021-08-25 17:54:08,3.96 s,1.30 s,1.16 s,5.00 ms,522 ms
2021-08-25 17:54:10,2.95 s,1.21 s,993 ms,8.16 ms,547 ms
2021-08-25 17:54:12,3.65 s,1.36 s,1.10 s,37.0 ms,587 ms
2021-08-25 17:54:14,3.67 s,1.18 s,1.04 s,12.7 ms,556 ms
2021-08-25 17:54:16,4.69 s,1.22 s,1.03 s,15.5 ms,551 ms
2021-08-25 17:54:18,3.21 s,1.44 s,1.18 s,34.8 ms,599 ms
2021-08-25 17:54:20,3.20 s,1.38 s,1.25 s,27.9 ms,663 ms
2021-08-25 17:54:22,4.19 s,1.18 s,962 ms,4.41 ms,589 ms
2021-08-25 17:54:24,4.07 s,1.63 s,1.07 s,36.3 ms,563 ms
2021-08-25 17:54:26,3.17 s,1.45 s,1.23 s,17.7 ms,636 ms
2021-08-25 17:54:28,3.95 s,1.37 s,1.14 s,15.8 ms,564 ms
2021-08-25 17:54:30,4.17 s,1.46 s,1.20 s,3.34 ms,628 ms
2021-08-25 17:54:32,3.51 s,1.80 s,1.49 s,49.3 ms,738 ms
2021-08-25 17:54:34,4.50 s,1.65 s,1.24 s,37.6 ms,674 ms
2021-08-25 17:54:36,2.96 s,1.52 s,1.19 s,58.9 ms,613 ms
2021-08-25 17:54:38,4.25 s,1.51 s,1.25 s,7.06 ms,607 ms
2021-08-25 17:54:40,3.00 s,1.33 s,1.20 s,7.67 ms,634 ms
2021-08-25 17:54:42,5.08 s,1.43 s,1.07 s,33.4 ms,616 ms
2021-08-25 17:54:44,2.78 s,1.16 s,973 ms,33.3 ms,561 ms
2021-08-25 17:54:46,4.22 s,1.25 s,1.06 s,5.32 ms,672 ms
2021-08-25 17:54:48,3.05 s,1.64 s,1.40 s,8.12 ms,645 ms
2021-08-25 17:54:50,4.96 s,1.31 s,1.05 s,9.56 ms,627 ms
2021-08-25 17:54:52,4.15 s,1.66 s,1.25 s,17.5 ms,633 ms
2021-08-25 17:54:54,3.70 s,1.34 s,1.09 s,6.61 ms,583 ms
2021-08-25 17:54:56,3.45 s,1.59 s,1.24 s,62.3 ms,645 ms
2021-08-25 17:54:58,3.99 s,1.29 s,1.15 s,10.1 ms,590 ms
2021-08-25 17:55:00,3.48 s,1.25 s,1.09 s,6.93 ms,552 ms
2021-08-25 17:55:02,2.80 s,1.19 s,966 ms,9.00 ms,527 ms
2021-08-25 17:55:04,2.72 s,1.41 s,1.22 s,9.00 ms,696 ms
2021-08-25 17:55:06,3.38 s,1.28 s,1.06 s,45.0 ms,575 ms
2021-08-25 17:55:08,2.64 s,1.13 s,954 ms,2.24 ms,502 ms
2021-08-25 17:55:10,3.41 s,1.20 s,1.09 s,7.52 ms,617 ms
2021-08-25 17:55:12,3.68 s,1.15 s,987 ms,17.6 ms,563 ms
2021-08-25 17:55:14,3.57 s,1.15 s,997 ms,26.7 ms,540 ms
2021-08-25 17:55:16,3.12 s,1.55 s,1.17 s,26.9 ms,602 ms
2021-08-25 17:55:18,4.04 s,1.37 s,1.09 s,67.4 ms,603 ms
2021-08-25 17:55:20,4.90 s,1.45 s,1.19 s,37.7 ms,642 ms
2021-08-25 17:55:22,2.97 s,1.36 s,1.20 s,77.8 ms,591 ms
2021-08-25 17:55:24,5.22 s,1.48 s,1.10 s,3.51 ms,605 ms
2021-08-25 17:55:26,4.33 s,1.55 s,1.31 s,7.43 ms,581 ms
2021-08-25 17:55:28,3.94 s,1.39 s,1.12 s,18.3 ms,578 ms
2021-08-25 17:55:30,3.64 s,1.48 s,1.11 s,4.48 ms,575 ms
2021-08-25 17:55:32,3.33 s,1.18 s,939 ms,24.3 ms,516 ms
2021-08-25 17:55:34,3.90 s,1.79 s,1.31 s,9.79 ms,707 ms
2021-08-25 17:55:36,3.47 s,1.19 s,991 ms,5.94 ms,554 ms
2021-08-25 17:55:38,3.60 s,1.33 s,941 ms,32.4 ms,538 ms
2021-08-25 17:55:40,5.13 s,1.40 s,1.16 s,11.8 ms,566 ms
2021-08-25 17:55:42,3.15 s,1.34 s,1.11 s,14.4 ms,562 ms
2021-08-25 17:55:44,4.15 s,1.54 s,1.17 s,4.89 ms,596 ms
2021-08-25 17:55:46,4.83 s,1.15 s,983 ms,2.51 ms,537 ms
2021-08-25 17:55:48,3.15 s,1.08 s,947 ms,2.96 ms,547 ms
2021-08-25 17:55:50,3.25 s,1.67 s,1.29 s,36.5 ms,612 ms
2021-08-25 17:55:52,2.74 s,966 ms,841 ms,3.13 ms,493 ms
2021-08-25 17:55:54,2.84 s,1.62 s,1.26 s,10.6 ms,632 ms
2021-08-25 17:55:56,3.24 s,1.33 s,1.14 s,2.08 ms,554 ms
2021-08-25 17:55:58,4.42 s,1.17 s,950 ms,4.89 ms,491 ms
2021-08-25 17:56:00,2.95 s,1.60 s,1.24 s,3.60 ms,647 ms
2021-08-25 17:56:02,3.79 s,1.78 s,1.34 s,2.99 ms,628 ms
2021-08-25 17:56:04,4.70 s,1.52 s,1.03 s,4.28 ms,602 ms
2021-08-25 17:56:06,3.24 s,1.29 s,1.06 s,9.38 ms,581 ms
2021-08-25 17:56:08,3.21 s,1.33 s,1.08 s,6.29 ms,626 ms
2021-08-25 17:56:10,3.32 s,1.33 s,1.09 s,9.00 ms,601 ms
2021-08-25 17:56:12,4.21 s,1.25 s,1.02 s,2.21 ms,587 ms
2021-08-25 17:56:14,3.39 s,1.52 s,1.26 s,20.6 ms,643 ms
2021-08-25 17:56:16,4.18 s,1.07 s,908 ms,27.9 ms,553 ms
2021-08-25 17:56:18,3.69 s,1.39 s,1.09 s,2.94 ms,576 ms
2021-08-25 17:56:20,2.96 s,1.26 s,1.01 s,49.6 ms,540 ms
2021-08-25 17:56:22,3.22 s,1.59 s,1.40 s,2.53 ms,771 ms
2021-08-25 17:56:24,4.02 s,1.26 s,1.08 s,10.7 ms,625 ms
2021-08-25 17:56:26,4.72 s,1.07 s,964 ms,58.5 ms,516 ms
2021-08-25 17:56:28,3.49 s,1.41 s,1.16 s,30.0 ms,612 ms
2021-08-25 17:56:30,3.69 s,1.53 s,1.16 s,21.4 ms,626 ms
2021-08-25 17:56:32,3.24 s,1.36 s,1.12 s,68.5 ms,552 ms
2021-08-25 17:56:34,5.28 s,1.41 s,1.26 s,4.23 ms,654 ms
2021-08-25 17:56:36,4.89 s,1.52 s,1.20 s,45.1 ms,586 ms
2021-08-25 17:56:38,3.42 s,1.37 s,1.16 s,12.5 ms,581 ms
2021-08-25 17:56:40,3.67 s,1.27 s,1.08 s,19.3 ms,591 ms
2021-08-25 17:56:42,3.16 s,1.42 s,1.21 s,12.2 ms,637 ms
2021-08-25 17:56:44,3.26 s,1.43 s,1.19 s,12.6 ms,652 ms
2021-08-25 17:56:46,3.91 s,1.30 s,1.10 s,10.3 ms,576 ms
2021-08-25 17:56:48,3.06 s,1.53 s,1.29 s,40.5 ms,660 ms
2021-08-25 17:56:50,3.57 s,1.41 s,1.17 s,3.34 ms,582 ms
2021-08-25 17:56:52,3.69 s,1.58 s,1.28 s,21.4 ms,643 ms
2021-08-25 17:56:54,4.37 s,1.32 s,1.14 s,4.41 ms,627 ms
2021-08-25 17:56:56,2.88 s,1.53 s,1.21 s,37.9 ms,582 ms
2021-08-25 17:56:58,1.94 s,888 ms,507 ms,2.53 ms,204 ms

